{
  "schemaVersion": 1,
  "id": "respackopts",
  "version": "${version}",
  "name": "Resource Pack Options",
  "description": "Allows resource packs to expose GUIs to users",
  "authors": [
    "JFronny"
  ],
  "contact": {},
  "license": "MIT",
  "icon": "assets/respackopts/icon.png",
  "environment": "client",
  "entrypoints": {
    "client": [
      "io.gitlab.jfronny.respackopts.Respackopts"
    ],
    "modmenu": [
      "io.gitlab.jfronny.respackopts.integration.ModMenuCompat"
    ],
    "libcd:conditions": [
      "io.gitlab.jfronny.respackopts.integration.LibCDCompat"
    ],
    "frex": [
      "io.gitlab.jfronny.respackopts.integration.FrexCompat"
    ]
  },
  "mixins": [
    "respackopts.mixins.json"
  ],
  "depends": {
    "fabricloader": ">=0.10.8",
    "fabric": "*",
    "minecraft": "*"
  }
}
